{
	"info": {
		"_postman_id": "d32cd6b3-a392-4b78-ade4-bed9dfa98cc4",
		"name": "Workshop-FizzBuzz",
		"schema": "https://schema.getpostman.com/json/collection/v2.1.0/collection.json"
	},
	"item": [
		{
			"name": "api",
			"item": [
				{
					"name": "v1",
					"item": [
						{
							"name": "FizzBuzz",
							"item": [
								{
									"name": "GetFizzBuzz - simple",
									"event": [
										{
											"listen": "test",
											"script": {
												"exec": [
													"pm.test(\"Status test\", function () {",
													"    pm.response.to.have.status(200);",
													"});",
													"",
													"const jsonData = pm.response.json();",
													"pm.test(\"Test data type of the response\", () => {",
													"  pm.expect(jsonData).to.be.an(\"array\");",
													"});"
												],
												"type": "text/javascript"
											}
										}
									],
									"request": {
										"method": "GET",
										"header": [],
										"url": {
											"raw": "http://127.0.0.1:8080/api/v1/fizzbuzz/:int1/:in2/:limit/:str1/:str2",
											"protocol": "http",
											"host": [
												"127",
												"0",
												"0",
												"1"
											],
											"port": "8080",
											"path": [
												"api",
												"v1",
												"fizzbuzz",
												":int1",
												":in2",
												":limit",
												":str1",
												":str2"
											],
											"variable": [
												{
													"key": "int1",
													"value": "3"
												},
												{
													"key": "in2",
													"value": "5"
												},
												{
													"key": "limit",
													"value": "100"
												},
												{
													"key": "str1",
													"value": "Fuzzy"
												},
												{
													"key": "str2",
													"value": "Buzzy"
												}
											]
										}
									},
									"response": []
								},
								{
									"name": "Error - GetFizzBuzz - Limit out of bounds - negative value",
									"event": [
										{
											"listen": "test",
											"script": {
												"exec": [
													"pm.test(\"Expect Status to be 400\", () => {",
													"    pm.response.to.have.status(400);",
													"});",
													"",
													"const jsonData = pm.response.json();",
													"pm.test(\"Test data type of the response\", () => {",
													"  pm.expect(jsonData).to.be.an(\"object\");",
													"  pm.expect(jsonData.code).to.be.a(\"number\");",
													"  pm.expect(jsonData.message).to.be.a(\"string\");",
													"});",
													"",
													"pm.test(\"Error message matches string\", function () {",
													"    pm.expect(jsonData.message).to.equal(\"limit out of bounds (range between 1-100)\");",
													"});",
													"",
													""
												],
												"type": "text/javascript"
											}
										}
									],
									"request": {
										"method": "GET",
										"header": [],
										"url": {
											"raw": "http://127.0.0.1:8080/api/v1/fizzbuzz/:int1/:in2/:limit/:str1/:str2",
											"protocol": "http",
											"host": [
												"127",
												"0",
												"0",
												"1"
											],
											"port": "8080",
											"path": [
												"api",
												"v1",
												"fizzbuzz",
												":int1",
												":in2",
												":limit",
												":str1",
												":str2"
											],
											"variable": [
												{
													"key": "int1",
													"value": "3"
												},
												{
													"key": "in2",
													"value": "5"
												},
												{
													"key": "limit",
													"value": "-1"
												},
												{
													"key": "str1",
													"value": "Fuzzy"
												},
												{
													"key": "str2",
													"value": "Buzzy"
												}
											]
										}
									},
									"response": []
								},
								{
									"name": "Error - GetFizzBuzz - Limit out of bounds - above maximum range (100)",
									"event": [
										{
											"listen": "test",
											"script": {
												"exec": [
													"pm.test(\"Expect Status to be 400\", () => {",
													"    pm.response.to.have.status(400);",
													"});",
													"",
													"const jsonData = pm.response.json();",
													"pm.test(\"Test data type of the response\", () => {",
													"  pm.expect(jsonData).to.be.an(\"object\");",
													"  pm.expect(jsonData.code).to.be.a(\"number\");",
													"  pm.expect(jsonData.message).to.be.a(\"string\");",
													"});",
													"",
													"pm.test(\"Error message matches string\", function () {",
													"    pm.expect(jsonData.message).to.equal(\"limit out of bounds (range between 1-100)\");",
													"});",
													""
												],
												"type": "text/javascript"
											}
										}
									],
									"request": {
										"method": "GET",
										"header": [],
										"url": {
											"raw": "http://127.0.0.1:8080/api/v1/fizzbuzz/:int1/:in2/:limit/:str1/:str2",
											"protocol": "http",
											"host": [
												"127",
												"0",
												"0",
												"1"
											],
											"port": "8080",
											"path": [
												"api",
												"v1",
												"fizzbuzz",
												":int1",
												":in2",
												":limit",
												":str1",
												":str2"
											],
											"variable": [
												{
													"key": "int1",
													"value": "3"
												},
												{
													"key": "in2",
													"value": "5"
												},
												{
													"key": "limit",
													"value": "101"
												},
												{
													"key": "str1",
													"value": "Fuzzy"
												},
												{
													"key": "str2",
													"value": "Buzzy"
												}
											]
										}
									},
									"response": []
								},
								{
									"name": "Error - GetFizzBuzz - int1 or in2 out of bounds - negative value - int1",
									"event": [
										{
											"listen": "test",
											"script": {
												"exec": [
													"pm.test(\"Expect Status to be 400\", () => {",
													"    pm.response.to.have.status(400);",
													"});",
													"",
													"const jsonData = pm.response.json();",
													"pm.test(\"Test data type of the response\", () => {",
													"  pm.expect(jsonData).to.be.an(\"object\");",
													"  pm.expect(jsonData.code).to.be.a(\"number\");",
													"  pm.expect(jsonData.message).to.be.a(\"string\");",
													"});",
													"",
													"pm.test(\"Error message matches string\", function () {",
													"    pm.expect(jsonData.message).to.equal(\"int1 and int2 value out of bounds (range: 1-20)\");",
													"});",
													""
												],
												"type": "text/javascript"
											}
										}
									],
									"request": {
										"method": "GET",
										"header": [],
										"url": {
											"raw": "http://127.0.0.1:8080/api/v1/fizzbuzz/:int1/:in2/:limit/:str1/:str2",
											"protocol": "http",
											"host": [
												"127",
												"0",
												"0",
												"1"
											],
											"port": "8080",
											"path": [
												"api",
												"v1",
												"fizzbuzz",
												":int1",
												":in2",
												":limit",
												":str1",
												":str2"
											],
											"variable": [
												{
													"key": "int1",
													"value": "-3"
												},
												{
													"key": "in2",
													"value": "5"
												},
												{
													"key": "limit",
													"value": "20"
												},
												{
													"key": "str1",
													"value": "Fuzzy"
												},
												{
													"key": "str2",
													"value": "Buzzy"
												}
											]
										}
									},
									"response": []
								},
								{
									"name": "Error - GetFizzBuzz - int1 or in2 out of bounds - negative value - int2",
									"event": [
										{
											"listen": "test",
											"script": {
												"exec": [
													"pm.test(\"Expect Status to be 400\", () => {",
													"    pm.response.to.have.status(400);",
													"});",
													"",
													"const jsonData = pm.response.json();",
													"pm.test(\"Test data type of the response\", () => {",
													"  pm.expect(jsonData).to.be.an(\"object\");",
													"  pm.expect(jsonData.code).to.be.a(\"number\");",
													"  pm.expect(jsonData.message).to.be.a(\"string\");",
													"});",
													"",
													"pm.test(\"Error message matches string\", function () {",
													"    pm.expect(jsonData.message).to.equal(\"int1 and int2 value out of bounds (range: 1-20)\");",
													"});",
													""
												],
												"type": "text/javascript"
											}
										}
									],
									"request": {
										"method": "GET",
										"header": [],
										"url": {
											"raw": "http://127.0.0.1:8080/api/v1/fizzbuzz/:int1/:in2/:limit/:str1/:str2",
											"protocol": "http",
											"host": [
												"127",
												"0",
												"0",
												"1"
											],
											"port": "8080",
											"path": [
												"api",
												"v1",
												"fizzbuzz",
												":int1",
												":in2",
												":limit",
												":str1",
												":str2"
											],
											"variable": [
												{
													"key": "int1",
													"value": "3"
												},
												{
													"key": "in2",
													"value": "-5"
												},
												{
													"key": "limit",
													"value": "20"
												},
												{
													"key": "str1",
													"value": "Fuzzy"
												},
												{
													"key": "str2",
													"value": "Buzzy"
												}
											]
										}
									},
									"response": []
								},
								{
									"name": "Error - GetFizzBuzz - int1 or in2 out of bounds - above limit range - int1",
									"event": [
										{
											"listen": "test",
											"script": {
												"exec": [
													"pm.test(\"Expect Status to be 400\", () => {",
													"    pm.response.to.have.status(400);",
													"});",
													"",
													"const jsonData = pm.response.json();",
													"pm.test(\"Test data type of the response\", () => {",
													"  pm.expect(jsonData).to.be.an(\"object\");",
													"  pm.expect(jsonData.code).to.be.a(\"number\");",
													"  pm.expect(jsonData.message).to.be.a(\"string\");",
													"});",
													"",
													"pm.test(\"Error message matches string\", function () {",
													"    pm.expect(jsonData.message).to.equal(\"int1 and int2 value out of bounds (range: 1-20)\");",
													"});",
													""
												],
												"type": "text/javascript"
											}
										}
									],
									"request": {
										"method": "GET",
										"header": [],
										"url": {
											"raw": "http://127.0.0.1:8080/api/v1/fizzbuzz/:int1/:in2/:limit/:str1/:str2",
											"protocol": "http",
											"host": [
												"127",
												"0",
												"0",
												"1"
											],
											"port": "8080",
											"path": [
												"api",
												"v1",
												"fizzbuzz",
												":int1",
												":in2",
												":limit",
												":str1",
												":str2"
											],
											"variable": [
												{
													"key": "int1",
													"value": "21"
												},
												{
													"key": "in2",
													"value": "5"
												},
												{
													"key": "limit",
													"value": "20"
												},
												{
													"key": "str1",
													"value": "Fuzzy"
												},
												{
													"key": "str2",
													"value": "Buzzy"
												}
											]
										}
									},
									"response": []
								},
								{
									"name": "Error - GetFizzBuzz - int1 or in2 out of bounds - above limit range - int2",
									"event": [
										{
											"listen": "test",
											"script": {
												"exec": [
													"pm.test(\"Expect Status to be 400\", () => {",
													"    pm.response.to.have.status(400);",
													"});",
													"",
													"const jsonData = pm.response.json();",
													"pm.test(\"Test data type of the response\", () => {",
													"  pm.expect(jsonData).to.be.an(\"object\");",
													"  pm.expect(jsonData.code).to.be.a(\"number\");",
													"  pm.expect(jsonData.message).to.be.a(\"string\");",
													"});",
													"",
													"pm.test(\"Error message matches string\", function () {",
													"    pm.expect(jsonData.message).to.equal(\"int1 and int2 value out of bounds (range: 1-20)\");",
													"});",
													""
												],
												"type": "text/javascript"
											}
										}
									],
									"request": {
										"method": "GET",
										"header": [],
										"url": {
											"raw": "http://127.0.0.1:8080/api/v1/fizzbuzz/:int1/:in2/:limit/:str1/:str2",
											"protocol": "http",
											"host": [
												"127",
												"0",
												"0",
												"1"
											],
											"port": "8080",
											"path": [
												"api",
												"v1",
												"fizzbuzz",
												":int1",
												":in2",
												":limit",
												":str1",
												":str2"
											],
											"variable": [
												{
													"key": "int1",
													"value": "3"
												},
												{
													"key": "in2",
													"value": "21"
												},
												{
													"key": "limit",
													"value": "20"
												},
												{
													"key": "str1",
													"value": "Fuzzy"
												},
												{
													"key": "str2",
													"value": "Buzzy"
												}
											]
										}
									},
									"response": []
								},
								{
									"name": "Error - GetFizzBuzz - int1 or in2 same value",
									"event": [
										{
											"listen": "test",
											"script": {
												"exec": [
													"pm.test(\"Expect Status to be 400\", () => {",
													"    pm.response.to.have.status(400);",
													"});",
													"",
													"const jsonData = pm.response.json();",
													"pm.test(\"Test data type of the response\", () => {",
													"  pm.expect(jsonData).to.be.an(\"object\");",
													"  pm.expect(jsonData.code).to.be.a(\"number\");",
													"  pm.expect(jsonData.message).to.be.a(\"string\");",
													"});",
													"",
													"pm.test(\"Error message matches string\", function () {",
													"    pm.expect(jsonData.message).to.equal(\"int1 and int2 cannot be of the same value\");",
													"});",
													""
												],
												"type": "text/javascript"
											}
										}
									],
									"request": {
										"method": "GET",
										"header": [],
										"url": {
											"raw": "http://127.0.0.1:8080/api/v1/fizzbuzz/:int1/:in2/:limit/:str1/:str2",
											"protocol": "http",
											"host": [
												"127",
												"0",
												"0",
												"1"
											],
											"port": "8080",
											"path": [
												"api",
												"v1",
												"fizzbuzz",
												":int1",
												":in2",
												":limit",
												":str1",
												":str2"
											],
											"variable": [
												{
													"key": "int1",
													"value": "3"
												},
												{
													"key": "in2",
													"value": "3"
												},
												{
													"key": "limit",
													"value": "20"
												},
												{
													"key": "str1",
													"value": "Fuzzy"
												},
												{
													"key": "str2",
													"value": "Buzzy"
												}
											]
										}
									},
									"response": []
								},
								{
									"name": "Error - GetFizzBuzz - Illegal character",
									"event": [
										{
											"listen": "test",
											"script": {
												"exec": [
													"pm.test(\"Expect Status to be 400\", () => {",
													"    pm.response.to.have.status(400);",
													"});",
													"",
													"const jsonData = pm.response.json();",
													"pm.test(\"Test data type of the response\", () => {",
													"  pm.expect(jsonData).to.be.an(\"object\");",
													"  pm.expect(jsonData.code).to.be.a(\"number\");",
													"  pm.expect(jsonData.message).to.be.a(\"string\");",
													"});",
													"",
													"pm.test(\"Error message matches string\", function () {",
													"    pm.expect(jsonData.message).to.equal(\"str1 and str2 cannot contains a '-' character\");",
													"});",
													""
												],
												"type": "text/javascript"
											}
										}
									],
									"request": {
										"method": "GET",
										"header": [],
										"url": {
											"raw": "http://127.0.0.1:8080/api/v1/fizzbuzz/:int1/:in2/:limit/:str1/:str2",
											"protocol": "http",
											"host": [
												"127",
												"0",
												"0",
												"1"
											],
											"port": "8080",
											"path": [
												"api",
												"v1",
												"fizzbuzz",
												":int1",
												":in2",
												":limit",
												":str1",
												":str2"
											],
											"variable": [
												{
													"key": "int1",
													"value": "3"
												},
												{
													"key": "in2",
													"value": "5"
												},
												{
													"key": "limit",
													"value": "20"
												},
												{
													"key": "str1",
													"value": "-----"
												},
												{
													"key": "str2",
													"value": "Buzzy"
												}
											]
										}
									},
									"response": []
								},
								{
									"name": "Error - GetFizzBuzz - Empty string",
									"event": [
										{
											"listen": "test",
											"script": {
												"exec": [
													"pm.test(\"Expect Status to be 400\", () => {",
													"    pm.response.to.have.status(400);",
													"});",
													"",
													"const jsonData = pm.response.json();",
													"pm.test(\"Test data type of the response\", () => {",
													"  pm.expect(jsonData).to.be.an(\"object\");",
													"  pm.expect(jsonData.code).to.be.a(\"number\");",
													"  pm.expect(jsonData.message).to.be.a(\"string\");",
													"});",
													"",
													"pm.test(\"Error message matches string\", function () {",
													"    pm.expect(jsonData.message).to.equal(\"str1 and str2 cannot be empty\");",
													"});",
													""
												],
												"type": "text/javascript"
											}
										}
									],
									"request": {
										"method": "GET",
										"header": [],
										"url": {
											"raw": "http://127.0.0.1:8080/api/v1/fizzbuzz/:int1/:in2/:limit/:str1/:str2",
											"protocol": "http",
											"host": [
												"127",
												"0",
												"0",
												"1"
											],
											"port": "8080",
											"path": [
												"api",
												"v1",
												"fizzbuzz",
												":int1",
												":in2",
												":limit",
												":str1",
												":str2"
											],
											"variable": [
												{
													"key": "int1",
													"value": "3"
												},
												{
													"key": "in2",
													"value": "5"
												},
												{
													"key": "limit",
													"value": "20"
												},
												{
													"key": "str1",
													"value": "      "
												},
												{
													"key": "str2",
													"value": "Buzzy"
												}
											]
										}
									},
									"response": []
								},
								{
									"name": "Error - GetFizzBuzz - str1 and str2 same value",
									"event": [
										{
											"listen": "test",
											"script": {
												"exec": [
													"pm.test(\"Expect Status to be 400\", () => {",
													"    pm.response.to.have.status(400);",
													"});",
													"",
													"const jsonData = pm.response.json();",
													"pm.test(\"Test data type of the response\", () => {",
													"  pm.expect(jsonData).to.be.an(\"object\");",
													"  pm.expect(jsonData.code).to.be.a(\"number\");",
													"  pm.expect(jsonData.message).to.be.a(\"string\");",
													"});",
													"",
													"pm.test(\"Error message matches string\", function () {",
													"    pm.expect(jsonData.message).to.equal(\"str1 and str2 cannot be of the same value\");",
													"});",
													""
												],
												"type": "text/javascript"
											}
										}
									],
									"request": {
										"method": "GET",
										"header": [],
										"url": {
											"raw": "http://127.0.0.1:8080/api/v1/fizzbuzz/:int1/:in2/:limit/:str1/:str2",
											"protocol": "http",
											"host": [
												"127",
												"0",
												"0",
												"1"
											],
											"port": "8080",
											"path": [
												"api",
												"v1",
												"fizzbuzz",
												":int1",
												":in2",
												":limit",
												":str1",
												":str2"
											],
											"variable": [
												{
													"key": "int1",
													"value": "3"
												},
												{
													"key": "in2",
													"value": "5"
												},
												{
													"key": "limit",
													"value": "20"
												},
												{
													"key": "str1",
													"value": "Buzzy"
												},
												{
													"key": "str2",
													"value": "Buzzy"
												}
											]
										}
									},
									"response": []
								}
							]
						},
						{
							"name": "Statistics",
							"item": [
								{
									"name": "GetStatistics",
									"event": [
										{
											"listen": "test",
											"script": {
												"exec": [
													"pm.test(\"Expect Status to be 200\", () => {",
													"    pm.response.to.have.status(200);",
													"});",
													"",
													"const jsonData = pm.response.json();",
													"pm.test(\"Test data type of the response\", () => {",
													"  pm.expect(jsonData).to.be.an(\"object\");",
													"  pm.expect(jsonData.int1).to.be.a(\"number\");",
													"  pm.expect(jsonData.int2).to.be.a(\"number\");",
													"  pm.expect(jsonData.limit).to.be.a(\"number\");",
													"  pm.expect(jsonData.hits).to.be.a(\"number\");",
													"  pm.expect(jsonData.str1).to.be.an(\"string\");",
													"  pm.expect(jsonData.str2).to.be.an(\"string\");",
													"});"
												],
												"type": "text/javascript"
											}
										}
									],
									"request": {
										"method": "GET",
										"header": [],
										"url": {
											"raw": "http://127.0.0.1:8080/api/v1/statistics",
											"protocol": "http",
											"host": [
												"127",
												"0",
												"0",
												"1"
											],
											"port": "8080",
											"path": [
												"api",
												"v1",
												"statistics"
											]
										}
									},
									"response": []
								}
							]
						}
					]
				}
			]
		},
		{
			"name": "HealthCheck",
			"event": [
				{
					"listen": "test",
					"script": {
						"exec": [
							"pm.test(\"Expect Status to be 200\", () => {",
							"    pm.response.to.have.status(200);",
							"});",
							"",
							"pm.test(\"Expect a response text \\\"ok\\\"\", () => {",
							"  pm.response.to.have.body(\"\\\"ok\\\"\");",
							"});"
						],
						"type": "text/javascript"
					}
				}
			],
			"request": {
				"method": "GET",
				"header": [],
				"url": {
					"raw": "http://127.0.0.1:8080/",
					"protocol": "http",
					"host": [
						"127",
						"0",
						"0",
						"1"
					],
					"port": "8080",
					"path": [
						""
					]
				}
			},
			"response": []
		}
	]
}